// Jest Snapshot v1, https://goo.gl/fbAQLP

exports[`Header component displays user name and logout link when user is authorized 1`] = `
<nav
  className="navbar navbar-expand-lg navbar-light bg-light"
>
  <ul
    className="nav mr-auto"
  >
    <li
      className="nav-item"
    >
      <Link
        className="nav-link"
        to="/news"
      >
        Главная
      </Link>
    </li>
    <li
      className="nav-item"
    >
      <Link
        className="nav-link"
        to="/news/add"
      >
        Добавить
      </Link>
    </li>
  </ul>
  <span
    className="navbar-text"
  >
    user
  </span>
  <span
    className="navbar-text ml-3 mr-3"
  >
    |
  </span>
  <button
    className="btn btn-link pl-0"
    onClick={[Function]}
    type="button"
  >
    Выйти
  </button>
</nav>
`;

exports[`Header component renders properly 1`] = `
<nav
  className="navbar navbar-expand-lg navbar-light bg-light"
>
  <ul
    className="nav mr-auto"
  >
    <li
      className="nav-item"
    >
      <Link
        className="nav-link"
        to="/news"
      >
        Главная
      </Link>
    </li>
  </ul>
  <button
    className="btn btn-link"
    disabled={false}
    onClick={[Function]}
    type="button"
  >
    Войти
  </button>
</nav>
`;
